{
  "spider": "./yydf.txt;md5;f90dbcbf8dd966817a5db78abb758023",
  "wallpaper": "http://饭太硬.ga/深色壁纸/api.php",
  "sites": [
    {
      "key": "[發]豆瓣",
      "name": "|书虫影视|业余打发",
      "type": 3,
      "api": "csp_Douban",
      "searchable": 0,
      "changeable": 1,
      "ext": "./lib/douban.json"
    },
    {
      "key": "网盘配置",
      "name": "网盘及彈幕配置",
      "type": 3,
      "api": "csp_Config",
      "searchable": 0,
      "changeable": 0,
      "ext": "http://127.0.0.1:9978/file/XYQTVBox/tokenm.json"
    },
   
    {
      "key": "酷狗",
      "name": "🎼 酷狗音乐",
      "type": 3,
      "api": "csp_Kugou",
      "playerType": 1,
      "searchable": 0,
      "changeable": 0,
      "style": {
        "type": "list"
      }
    },
    {
      "key": "csp_玩我哥哥",
      "name": "🦊 玩我哥哥",
      "type": 3,
      "jar": "./lib/duanjuw.txt;md5;5dbe95399010cd30706b01aa5624dbe0",
      "api": "csp_XYQHikerAL",
      "searchable": 1,
      "quickSearch": 1,
      "filterable": 1,
      "ext": "./lib/玩我哥哥.json"
    },
    {
      "key": "Iktv",
      "name": "🎙KTV",
      "type": 3,
      "api": "csp_WexIktv",
      "searchable": 1,
      "changeable": 0,
      "jar": "./lib/wex.txt;md5;1a93958bfdeb969dbdfd3478e7f8b61e"
    },
    {
      "key": "Yinyuetai",
      "name": "🛰音悦台",
      "type": 3,
      "api": "csp_WexYinyuetai",
      "searchable": 1,
      "changeable": 0,
      "jar": "./lib/wex.txt;md5;1a93958bfdeb969dbdfd3478e7f8b61e"
    },
    {
      "key": "csp_可可影视",
      "name": "🉑 可可影视",
      "type": 3,
      "api": "csp_XBPQ",
      "searchable": 1,
      "quickSearch": 1,
      "filterable": 1,
      "ext": {
        "图片": "data-original=\"&&\"[替换:/vod1>>https://vres.a357899.cn/vod1]",
        "线路数组": "<a&&</a>[排序:独家>蓝光8>FF线路>蓝光7>蓝光2>蓝光2-1>蓝光2-2>XL线路>HN线路>SB线路]",
        "线路标题": "source-item-label\">&&</span>",
        "分类url": "https://www.keke6.app/show/{cateId}-{class}-{area}-{lang}-{year}-3-{catePg}.html",
        "分类": "电视剧$2#电影$1#动漫$3#综艺$4#短剧$6"
      }
    },
    {
      "key": "csp_xBPQ_秒",
      "name": "👿文才·秒播",
      "type": 3,
      "api": "csp_XBPQ",
      "searchable": 1,
      "quickSearch": 1,
      "filterable": 0,
      "ext": "./lib/文才.json"
    },
    {
      "key": "天天",
      "name": "🐯 天天",
      "type": 3,
      "api": "csp_TTian",
      "playerType": 1,
      "ext": "http://op.ysdqjs.cn$$$null$$$1"
    },
    {
      "key": "热播",
      "name": "🦃热播",
      "type": 3,
      "api": "csp_TTian",
      "playerType": 2,
      "ext": "http://v.rbotv.cn"
    },
    {
      "key": "追剧",
      "name": "🐁追剧",
      "type": 3,
      "api": "csp_TTian",
      "playerType": 2,
      "ext": "http://app.kzjtv.com"
    },
    {
      "key": "csp_xp_vip",
      "name": "💧VIP影视",
      "type": 3,
      "api": "csp_XPath",
      "searchable": 1,
      "quickSearch": 1,
      "filterable": 0,
      "ext": "./lib/vip.json"
    },
    {
      "key": "酷看",
      "name": "💡酷看",
      "type": 3,
      "api": "csp_Kkys",
      "searchable": 1,
      "quickSearch": 1,
      "changeable": 1
    },
    {
      "key": "csp_Nmys",
      "name": "🌾农民·饭",
      "type": 3,
      "api": "csp_Nmys",
      "searchable": 1,
      "quickSearch": 1,
      "changeable": 1,
      "ext": "./lib/nmys.json"
    },
    {
      "key": "耐看",
      "name": "👁耐看┃自建",
      "type": 3,
      "api": "csp_XBPQ",
      "ext": {
        "分类数组": "swiper-wrapper\"*&&</ul>",
        "线路数组": "data-dropdown-value=&&</div>",
        "线路标题": "<span>&&</small>[替换:新自建.5>>耐看Ⓐ#新自建>>耐看Ⓑ#自建一>>耐看①#自建二>>耐看②#自建三>>耐看③#自建四>>耐看④#自建五>>耐看⑤#自建三.5>>耐看⓺#腾讯视频>>腾讯#优酷视频>>优酷#奇艺视频>>奇艺#芒果视频>>芒果#暴风资源>>暴风#快看资源>>快看#量子资源>>量子#非凡资源>>非凡#</span><small>>>共]+集",
        "分类url": "https://www.nkvod.com/show/{cateId}--------{catePg}---{year}.html"
      }
    },
    {
      "key": "baipiaoys",
      "name": "🏡白嫖影视",
      "type": 3,
      "changeable": 1,
      "searchable": 1,
      "quickSearch": 1,
      "filterable": 1,
      "api": "csp_XBPQ",
      "ext": {
        "主页url": "http://www.baipiaoys.cc/",
        "副标题": "pic-text text-right\">&&</b>",
        "搜索模式": "1",
        "搜索url": "https://www.baipiaoys.cc/search.html?wd={wd}",
        "图片": "data-original=\"&&\"",
        "嗅探词": ".mp4#m3u8#.m3u8#/tos/#.flv#video/tos",
        "影片类型": "<div class=\"module-info-tag\">&&立即播放",
        "导演": "导演：&&</div>",
        "主演": "主演：&&</div>",
        "分类": "短剧$4#电影$1#电视剧$2#动漫$3#综艺$5",
        "分类url": "http://www.baipiaoys.cc/show/area/{area}/class/{class}/id/{cateId}/page/{catePg}/lang/{lang}/letter/{letter}/year/{year}.html"
      }
    },
    {
      "key": "蓝光",
      "name": "🐳蓝光",
      "type": 1,
      "api": "http://vipcom.xn--654a.cc/api.php/provide/vod/",
      "playUrl": "json:http://json.xn--654a.cc/home/api?type=ys&uid=1323246&key=dfiopqzEHJKNOPSTY5&url=",
      "searchable": 1,
      "quickSearch": 1
    },
    {
      "key": "drpy_短剧tv",
      "name": "👹 短剧·tv",
      "type": 3,
      "api": "./lib/drpy2.min.js",
      "ext": "./lib/短剧TV.js"
    },
    {
      "key": "zz",
      "name": "😴短剧·种子",
      "type": 3,
      "api": "csp_App",
      "searchable": 1,
      "quickSearch": 1,
      "filterable": 0,
      "ext": "https://zzdj.cc/api.php/provide/vod",
      "jar": "./lib/zzdj.txt;md5;930999b157dbaa5462493c3dd9d6b235"
    },
    {
      "key": "csp_Bili短剧",
      "name": "🐞短剧·哔哩",
      "type": 3,
      "api": "csp_Bili",
      "searchable": 0,
      "quickSearch": 0,
      "filterable": 1,
      "ext": "./lib/Bili短剧.json"
    },
    {
      "key": "业余采集A",
      "name": "♻业余自营 ",
      "type": 1,
      "api": "http://154.3.2.163/api.php/provide/vod/",
      "playerType": 1,
      "searchable": 1,
      "quickSearch": 1,
      "filterable": 1,
      "categories": [
        "短剧",
        "电影",
        "电视剧",
        "动漫",
        "综艺",
        "记录片",
        "音乐",
        "影视解说",
        "体育"
      ]
    },
    {
      "key": "OK影院",
      "name": "🛸 OK影视",
      "type": 3,
      "api": "csp_XBPQ",
      "searchable": 1,
      "quickSearch": 1,
      "filterable": 1,
      "ext": {
        "分类url": "https://www.okdyw.com/vodshow/{cateId}-{area}-------{catePg}---{year}/"
      }
    },
    {
      "key": "py_ali",
      "name": "⛅️阿里合集·Py",
      "type": 3,
      "api": "./lib/py_ali.py",
      "searchable": 1,
      "quickSearch": 1,
      "filterable": 1,
      "ext": {
        "token": "./lib/alitoken.txt",
        "thread": "32"
      }
    },
    {
      "key": "酷影视",
      "name": "🍃酷影影视",
      "type": 3,
      "api": "csp_AppYsV2",
      "searchable": 1,
      "quickSearch": 1,
      "filterable": 1,
      "ext": "https://www.tvkuys.xyz/api.php/app/"
    },
    {
      "key": "shaozeyy",
      "name": "📺少泽影客",
      "type": 3,
      "api": "csp_AppYsV2",
      "searchable": 1,
      "quickSearch": 1,
      "changeable": 1,
      "ext": "https://yk.shaozeyy.com/api.php/app/"
    },
    {
      "key": "Kuaikan",
      "name": "💫快看影院",
      "type": 3,
      "api": "csp_Kuaikan",
      "searchable": 1,
      "quickSearch": 1,
      "filterable": 1
    },
    {
      "key": "csp_XYQHiker_爱看影视",
      "name": "✨爱看影视",
      "type": 3,
      "jar": "./lib/duanjuw.txt;md5;5dbe95399010cd30706b01aa5624dbe0",
      "api": "csp_XYQHiker",
      "searchable": 1,
      "quickSearch": 1,
      "filterable": 1,
      "ext": "./lib/爱看影院.json"
    },
    {
      "key": "csp_XYQHiker_奇趣影视",
      "name": "🔷奇趣影视",
      "type": 3,
      "jar": "./lib/duanjuw.txt;md5;5dbe95399010cd30706b01aa5624dbe0",
      "api": "csp_XYQHiker",
      "searchable": 1,
      "quickSearch": 1,
      "filterable": 1,
      "ext": "./lib/奇趣影视.json"
    },
    {
      "key": "csp_XYQHiker_农民影视",
      "name": "🌾农民·香",
      "type": 3,
      "jar": "./lib/duanjuw.txt;md5;5dbe95399010cd30706b01aa5624dbe0",
      "playerType": 2,
      "api": "csp_XYQHiker",
      "searchable": 1,
      "quickSearch": 1,
      "filterable": 1,
      "ext": "./lib/农民影视.json"
    },
    {
      "key": "csp_XYQHiker_电影牛影院",
      "name": "🐮电影牛院",
      "type": 3,
      "jar": "./lib/duanjuw.txt;md5;5dbe95399010cd30706b01aa5624dbe0",
      "playerType": 1,
      "api": "csp_XYQHiker",
      "searchable": 1,
      "quickSearch": 1,
      "filterable": 1,
      "ext": "./lib/电影牛影院.json"
    },
    {
      "key": "虎虎",
      "name": "🐯虎虎影视",
      "type": 3,
      "api": "csp_XBPQ",
      "ext": "./lib/虎虎.json"
    },
    {
      "key": "FirstAid",
      "name": "🚑急救知识 ",
      "type": 3,
      "api": "csp_FirstAid",
      "searchable": 0,
      "quickSearch": 0,
      "changeable": 0,
      "style": {
        "type": "rect",
        "ratio": 3.8
      }
    },
    {
      "key": "bili",
      "name": "👄哔哩|B站",
      "type": 3,
      "api": "csp_Bilipg",
      "searchable": 1,
      "quickSearch": 0,
      "changeable": 0,
      "ext": {
        "type": "演唱会#电影#电视剧#帕梅拉#广场舞#纪录片#综艺#鬼畜#音乐#舞蹈#影视#知识#美食#风光#田园#户外#8K#徐云",
        "cookie": "./lib/bili_cookie.txt"
      }
    },
    {
      "key": "Wogg",
      "name": "👽哥哥玩偶·PG",
      "type": 3,
      "api": "csp_Wogg",
      "quickSearch": 1,
      "changeable": 1,
      "filterable": 1,
      "timeout": 30,
      "ext": "./lib/wogg.json"
    },
    {
      "key": "csp_WoGG",
      "name": "👽饭·玩偶哥哥",
      "type": 3,
      "api": "csp_WoGG",
      "searchable": 1,
      "quickSearch": 1,
      "changeable": 1,
      "ext": "http://127.0.0.1:9978/file/XYQTVBox/alitoken.txt+4k|auto|fhd$$$https://www.wogg.xyz/$$$弹",
      "jar": "./lib/fan.txt;md5;56cc435ce565b5f4efe3cbea50ff1c18"
    },
    {
      "key": "Wobg",
      "name": "👽表哥玩偶·PG",
      "type": 3,
      "api": "csp_Wobg",
      "quickSearch": 1,
      "changeable": 1,
      "filterable": 1,
      "timeout": 30,
      "ext": "./lib/wogg.json"
    },
    {
      "key": "Wwbg",
      "name": "👽玩我哥哥·PG",
      "type": 3,
      "api": "csp_Wobg",
      "quickSearch": 1,
      "changeable": 1,
      "filterable": 1,
      "timeout": 30,
      "ext": "./lib/wogg.json"
    },
    {
      "key": "Wotudou",
      "name": "👽豆豆玩偶·PG",
      "type": 3,
      "api": "csp_Wobg",
      "quickSearch": 1,
      "changeable": 1,
      "filterable": 1,
      "timeout": 30,
      "ext": "./lib/wogg.json"
    },
    {
      "key": "Ppxzy",
      "name": "皮皮虾|网盘",
      "type": 3,
      "api": "csp_Ppxzy",
      "quickSearch": 1,
      "changeable": 1,
      "filterable": 1,
      "timeout": 30,
      "ext": "http://127.0.0.1:9978/file/XYQTVBox/tokenm.json$$$https://ppxzy.net$$$null$$$1"
    },
    {
      "key": "校长影视",
      "name": "校长|网盘",
      "type": 3,
      "api": "csp_XiaoZhang",
      "quickSearch": 1,
      "changeable": 1,
      "filterable": 1,
      "timeout": 30,
      "ext": "http://127.0.0.1:9978/file/XYQTVBox/tokenm.json$$$https://xzys.fun$$$null$$$1"
    },
    {
      "key": "团长资源",
      "name": "团长|网盘",
      "type": 3,
      "api": "csp_TZFile",
      "quickSearch": 1,
      "changeable": 1,
      "filterable": 1,
      "timeout": 30,
      "ext": "http://127.0.0.1:9978/file/XYQTVBox/tokenm.json$$$null$$$1"
    },
    {
      "key": "Libvio",
      "name": "利播|网盘",
      "type": 3,
      "api": "csp_Libvio",
      "quickSearch": 1,
      "changeable": 1,
      "filterable": 1,
      "timeout": 30,
      "ext": "http://127.0.0.1:9978/file/XYQTVBox/tokenm.json$$$https://www.libvio.pw$$$null"
    },
    {
      "key": "盘搜",
      "name": "盘搜|网盘",
      "type": 3,
      "api": "csp_PanSou",
      "timeout": 30,
      "ext": "http://127.0.0.1:9978/file/XYQTVBox/tokenm.json"
    },
    {
      "key": "Funletu",
      "name": "趣盘搜|夸克",
      "type": 3,
      "api": "csp_Funletu",
      "quickSearch": 1,
      "changeable": 1,
      "filterable": 1,
      "timeout": 30,
      "ext": "http://127.0.0.1:9978/file/XYQTVBox/tokenm.json"
    },
    {
      "key": "QuarkPanso",
      "name": "夸克搜|网盘",
      "type": 3,
      "api": "csp_QuarkPanso",
      "quickSearch": 1,
      "changeable": 1,
      "filterable": 1,
      "timeout": 30,
      "ext": "http://127.0.0.1:9978/file/XYQTVBox/tokenm.json"
    },
    {
      "key": "Dovx",
      "name": "Dovx|阿里",
      "type": 3,
      "api": "csp_Dovx",
      "searchable": 1,
      "quickSearch": 1,
      "filterable": 0,
      "timeout": 30,
      "ext": "http://127.0.0.1:9978/file/XYQTVBox/tokenm.json"
    },
    {
      "key": "新6V",
      "name": "新6V|网盘",
      "type": 3,
      "api": "csp_Xb6v",
      "searchable": 1,
      "changeable": 1,
      "timeout": 60,
      "ext": "http://127.0.0.1:9978/file/XYQTVBox/tokenm.json$$$https://www.66ss.org$$$null$$$1"
    },
    {
      "key": "4KHDR",
      "name": "4KHDR|网盘",
      "type": 3,
      "api": "csp_FourKHDR",
      "quickSearch": 1,
      "changeable": 1,
      "filterable": 1,
      "timeout": 60,
      "ext": "http://127.0.0.1:9978/file/XYQTVBox/tokenm.json$$$http://127.0.0.1:9978/file/XYQTVBox/4khdr.txt$$$1"
    },
    {
      "key": "sc1080",
      "name": "🥗 圣城 ",
      "type": 3,
      "api": "./lib/drpy2.min.js",
      "ext": "./lib/SC1080.js",
      "searchable": 1,
      "quickSearch": 1,
      "filterable": 1,
      "changeable": 1
    },
    {
      "key": "360yingshi",
      "name": "🌻 360影视 ",
      "type": 3,
      "api": "./lib/drpy2.min.js",
      "ext": "./lib/360yinshi.js",
      "searchable": 1,
      "quickSearch": 1,
      "filterable": 1,
      "changeable": 1
    },
    {
      "key": "蚂蚁",
      "name": "🐜 蚂蚁 ",
      "type": 3,
      "api": "csp_Mayiys",
      "searchable": 1,
      "quickSearch": 1,
      "changeable": 1,
      "ext": "http://rzys.xyz"
    },
    {
      "key": "Czsapp",
      "name": "📔 厂长",
      "type": 3,
      "api": "csp_Czsapp",
      "playerType": 2,
      "searchable": 1,
      "quickSearch": 1,
      "changeable": 1,
      "ext": "https://www.czzy88.com/"
    },
    {
      "key": "新视觉影院",
      "name": "🍈新视觉影院",
      "type": 3,
      "api": "csp_XBPQ",
      "searchable": 1,
      "quickSearch": 1,
      "filterable": 1,
      "ext": "./lib/新视觉影院.json"
    },
    {
      "key": "",
      "name": "🐯胖虎影视",
      "type": 3,
      "api": "csp_XBPQ",
      "searchable": 1,
      "quickSearch": 1,
      "filterable": 1,
      "ext": "./lib/胖虎影视.json"
    },
    {
      "key": "速映影视",
      "name": "🥐速映影视",
      "type": 3,
      "api": "csp_XBPQ",
      "searchable": 1,
      "quickSearch": 1,
      "filterable": 1,
      "ext": "./lib/胖虎影视.json"
    },
    {
      "key": "NanGua",
      "name": "🎃 南瓜 ",
      "type": 3,
      "api": "csp_NanGua",
      "searchable": 1,
      "changeable": 1,
      "ext": "null$$$1"
    },
    {
      "key": "畅梦",
      "name": "🚀 畅梦秒播 ",
      "type": 3,
      "api": "./lib/drpy2.min.js",
      "ext": "./lib/changmeng.js"
    },
    {
      "key": "csp_七年影视",
      "name": "🥇 七年影视 ",
      "type": 3,
      "api": "csp_XBPQ",
      "searchable": 1,
      "quickSearch": 1,
      "filterable": 1,
      "ext": "./lib/七年影视.json"
    },
    {
      "key": "csp_七新影视",
      "name": "🥉 七新影视",
      "type": 3,
      "jar": "./lib/duanjuw.txt;md5;5dbe95399010cd30706b01aa5624dbe0",
      "api": "csp_XYQHiker",
      "searchable": 1,
      "quickSearch": 1,
      "filterable": 1,
      "ext": "./lib/七新影视.json"
    },
    {
      "key": "dr_低端",
      "name": "🥃 低端(drpy) ",
      "type": 3,
      "api": "./lib/drpy2.min.js",
      "searchable": 2,
      "quickSearch": 0,
      "filterable": 1,
      "ext": "./lib/ddys.js"
    },
    {
      "key": "csp_DiDuan",
      "name": "🏌 低调直连 ",
      "type": 3,
      "api": "csp_Ddrk",
      "searchable": 1,
      "quickSearch": 1,
      "changeable": 1
    },
    {
      "key": "泰泰",
      "name": "🍀 泰泰 ",
      "type": 3,
      "api": "csp_AppYsV2",
      "searchable": 1,
      "quickSearch": 1,
      "filterable": 1,
      "ext": "https://www.tvkuys.xyz/api.php/app/"
    },
    {
      "key": "狐狸",
      "name": "🦊 狐狸",
      "type": 3,
      "api": "csp_AppYsV2",
      "searchable": 1,
      "quickSearch": 1,
      "filterable": 0,
      "ext": "https://www.kuin.one/api.php/app/"
    },
    {
      "key": "drpy_js_宅腐影视",
      "name": "🍥 宅腐 ",
      "type": 3,
      "api": "./lib/drpy2.min.js",
      "ext": "./lib/宅腐影视.js",
      "searchable": 0,
      "quickSearch": 0,
      "filterable": 1
    },
    {
      "key": "dr_武享吧",
      "name": "🥊 武享吧(drpy) ",
      "type": 3,
      "api": "./lib/drpy2.min.js",
      "searchable": 2,
      "quickSearch": 0,
      "filterable": 1,
      "ext": "./lib/武享吧.js"
    },
    {
      "key": "drpy_js_优酷1",
      "name": "📚 优酷(官源) ",
      "type": 3,
      "api": "./lib/drpy2.min.js",
      "ext": "./lib/youku.js"
    },
    {
      "key": "搜狗2",
      "name": "📓 搜狗(官源) ",
      "type": 3,
      "api": "./lib/drpy2.min.js",
      "ext": "./lib/sougou.js"
    },
    {
      "key": "腾讯2",
      "name": "📕 腾讯(官源) ",
      "type": 3,
      "api": "./lib/drpy2.min.js",
      "ext": "./lib/tengxun.js"
    },
    {
      "key": "爱奇异",
      "name": "📘 爱奇艺(官源) ",
      "type": 3,
      "api": "./lib/drpy2.min.js",
      "ext": "./lib/iqy.js"
    },
    {
      "key": "芒果",
      "name": "📘 芒果(官源) ",
      "type": 3,
      "api": "./lib/drpy2.min.js",
      "ext": "./lib/mangguo.js"
    },
    {
      "key": "xml_火狐",
      "name": "🥟 豪华采集 ",
      "type": 1,
      "api": "https://hhzyapi.com/api.php/provide/vod",
      "searchable": 1,
      "quickSearch": 1,
      "filterable": 1,
      "categories": [
        "动作片",
        "喜剧片",
        "爱情片",
        "科幻片",
        "剧情片",
        "战争片",
        "悬疑片",
        "犯罪片",
        "奇幻片",
        "记录片",
        "动画片",
        "内地剧",
        "香港剧",
        "台湾剧",
        "日剧",
        "韩剧",
        "欧美剧",
        "马泰剧",
        "大陆综艺",
        "港台综艺",
        "日韩综艺",
        "欧美综艺",
        "中国动漫",
        "日本动漫",
        "欧美动漫"
      ]
    },
    {
      "key": "量子",
      "name": "🔴 量子 ",
      "type": 0,
      "api": "https://cj.lziapi.com/api.php/provide/vod/at/xml/",
      "searchable": 1,
      "changeable": 1,
      "categories": [
        "国产动漫",
        "日韩动漫",
        "国产剧",
        "韩国剧",
        "日本剧",
        "电影片",
        "连续剧",
        "综艺片",
        "动漫片",
        "动作片",
        "喜剧片",
        "爱情片",
        "科幻片",
        "恐怖片",
        "剧情片",
        "战争片",
        "台湾剧",
        "香港剧",
        "欧美剧",
        "记录片",
        "海外剧",
        "泰国剧",
        "大陆综艺",
        "港台综艺",
        "日韩综艺",
        "欧美综艺",
        "欧美动漫",
        "港台动漫",
        "海外动漫",
        "体育",
        "足球",
        "篮球",
        "网球",
        "斯诺克"
      ]
    },
    {
      "key": "非凡",
      "name": "🔵 非凡 ",
      "type": 0,
      "api": "http://cj.ffzyapi.com/api.php/provide/vod/at/xml/",
      "searchable": 1,
      "changeable": 1,
      "categories": [
        "国产动漫",
        "日韩动漫",
        "国产剧",
        "韩国剧",
        "日本剧",
        "电影片",
        "连续剧",
        "综艺片",
        "动漫片",
        "动作片",
        "喜剧片",
        "爱情片",
        "科幻片",
        "恐怖片",
        "剧情片",
        "战争片",
        "香港剧",
        "欧美剧",
        "记录片",
        "台湾剧",
        "海外剧",
        "泰国剧",
        "大陆综艺",
        "港台综艺",
        "日韩综艺",
        "欧美综艺",
        "欧美动漫",
        "港台动漫",
        "海外动漫"
      ]
    },
    {
      "key": "csp_Mp4Mov",
      "name": "🧲 Mp4电影 ",
      "type": 3,
      "jar": "./lib/duanjuw.txt;md5;5dbe95399010cd30706b01aa5624dbe0",
      "api": "csp_Mp4Mov",
      "searchable": 1,
      "quickSearch": 1,
      "filterable": 1
    },
    {
      "key": "csp_New6v",
      "name": "🧲 新6V ",
      "type": 3,
      "jar": "./lib/duanjuw.txt;md5;5dbe95399010cd30706b01aa5624dbe0",
      "api": "csp_New6v",
      "searchable": 1,
      "quickSearch": 1,
      "filterable": 1,
      "ext": "http://www.xb6v.com"
    },
    {
      "key": "csp_SeedHub",
      "name": "🧲 SeedHub ",
      "type": 3,
      "api": "csp_SeedHub",
      "playerType": 2,
      "searchable": 1,
      "quickSearch": 1,
      "filterable": 1
    },
    {
      "key": "csp_KubaCL",
      "name": "🧲 酷吧电影 ",
      "type": 3,
      "jar": "./lib/duanjuw.txt;md5;5dbe95399010cd30706b01aa5624dbe0",
      "api": "csp_KubaCL",
      "playerType": 2,
      "searchable": 1,
      "quickSearch": 1,
      "filterable": 1
    },
    {
      "key": "csp_MeijuTT",
      "name": "🧲 美剧天堂 ",
      "type": 3,
      "api": "csp_MeijuTT",
      "playerType": 2,
      "searchable": 1,
      "quickSearch": 1,
      "filterable": 1
    },
    {
      "key": "csp_MeijuMi",
      "name": "🧲 美剧迷 ",
      "type": 3,
      "api": "csp_MeijuMi",
      "playerType": 2,
      "searchable": 1,
      "quickSearch": 1,
      "filterable": 1
    },
    {
      "key": "csp_Xunlei8",
      "name": "🧲 迅雷吧 ",
      "type": 3,
      "api": "csp_Xunlei8",
      "playerType": 2,
      "searchable": 1,
      "quickSearch": 1,
      "filterable": 1
    },
    {
      "key": "csp_XYQHiker_高清MP4",
      "name": "🧲 高清MP4 ",
      "type": 3,
      "jar": "./lib/duanjuw.txt;md5;5dbe95399010cd30706b01aa5624dbe0",
      "api": "csp_XYQHiker",
      "searchable": 1,
      "quickSearch": 1,
      "filterable": 1,
      "ext": "./lib/高清MP4.json"
    },
    {
      "key": "csp_XYQHiker_蚂蚁4K",
      "name": "🧲 蚂蚁4K ",
      "type": 3,
      "jar": "./lib/duanjuw.txt;md5;5dbe95399010cd30706b01aa5624dbe0",
      "api": "csp_XYQHiker",
      "searchable": 1,
      "quickSearch": 1,
      "filterable": 1,
      "ext": "./lib/蚂蚁4K.json"
    },
    {
      "key": "csp_XYQHiker_哔嘀影视",
      "name": "🧲 哔嘀影视 ",
      "type": 3,
      "jar": "./lib/duanjuw.txt;md5;5dbe95399010cd30706b01aa5624dbe0",
      "api": "csp_XYQHiker",
      "searchable": 1,
      "quickSearch": 1,
      "filterable": 1,
      "ext": "./lib/哔嘀影视.json"
    },
    {
      "key": "csp_XYQHiker_磁力熊",
      "name": "🧲 磁力熊 ",
      "type": 3,
      "jar": "./lib/duanjuw.txt;md5;5dbe95399010cd30706b01aa5624dbe0",
      "api": "csp_XYQHiker",
      "searchable": 1,
      "quickSearch": 1,
      "filterable": 1,
      "ext": "./lib/磁力熊.json"
    },
    {
      "key": "csp_Ysj",
      "name": "🎀异界动漫",
      "type": 3,
      "api": "csp_Ysj",
      "searchable": 1,
      "quickSearch": 1,
      "changeable": 1
    },
    {
      "key": "喵物",
      "name": "🐥喵物动漫",
      "type": 3,
      "api": "./lib/drpy.min.js",
      "searchable": 1,
      "changeable": 1,
      "ext": "./lib/喵物次元.js"
    },
    {
      "key": "csp_58",
      "name": "🥌 58动漫 ",
      "type": 3,
      "style": {
        "type": "rect",
        "ratio": 1.33
      },
      "playerType": 2,
      "api": "csp_XBPQ",
      "searchable": 1,
      "quickSearch": 1,
      "filterable": 1,
      "ext": {
        "站名": "58动漫",
        "主页url": "http://www.ting38.com",
        "简介": "剧情介绍: &&</p>",
        "导演": "导演：&&</a>",
        "主演": "主演：&&</a>",
        "影片状态": "更新：&&</li>",
        "影片类型": "类型: &&</a>",
        "数组": "fed-lazy fed-part-2by3\"&&\"fed-list-title",
        "标题": "title=\"&&\"",
        "副标题": "fed-text-center\">&&</span>",
        "图片": "data-original=\"&&\"",
        "链接": "href=\"&&\"",
        "搜索模式": "1",
        "搜索url": "http://www.ting38.com/search.php?searchword={wd}",
        "搜索数组": "fed-lazy fed-part-2by3\"&&\"fed-list-title",
        "搜索标题": "title=\"&&\"",
        "搜索副标题": "fed-text-center\">&&</span>",
        "搜索图片": "data-original=\"&&\"",
        "搜索链接": "href=\"&&\"",
        "线路数组": "data-toggle=&&</a>[替换:动漫专线⑦>>动漫专线1#动漫专线⑤>>动漫专线2][不包含:动漫专线①#动漫专线②#动漫专线④#动漫专线③#动漫专线⑥]",
        "线路标题": ">&&<",
        "播放数组": "<ul class=\"myui-content__list&&</ul>",
        "播放标题": ">&&<",
        "播放列表": "<a&&/a>",
        "分类url": "http://www.ting38.com/ting/{cateId}-{catePg}.html;;ak",
        "分类": "国产动漫$2#动漫电影$4#新番日漫$1#欧美动漫$3"
      }
    },
    {
      "key": "csp_Dm84",
      "name": "🚌 动漫巴士1 ",
      "type": 3,
      "api": "csp_Dm84",
      "searchable": 1,
      "quickSearch": 1,
      "filterable": 1
    },
    {
      "key": "csp_xpath___动漫巴士",
      "name": "🚎 动漫巴士2 ",
      "type": 3,
      "api": "csp_XPath",
      "searchable": 1,
      "quickSearch": 1,
      "filterable": 1,
      "ext": "./lib/动漫巴士.json"
    },
    {
      "key": "csp_Dm84_3",
      "name": "🚐 动漫巴士3 ",
      "type": 3,
      "api": "csp_XBPQ",
      "searchable": 1,
      "quickSearch": 1,
      "filterable": 1,
      "ext": "./lib/Dm84.json"
    },
    {
      "key": "csp_Ysj",
      "name": "🦑 异界动漫 ",
      "type": 3,
      "api": "csp_Ysj",
      "searchable": 1,
      "quickSearch": 1,
      "filterable": 1
    },
    {
      "key": "csp_Anime1",
      "name": "🎎 日漫 ",
      "type": 3,
      "api": "csp_Anime1",
      "searchable": 1,
      "quickSearch": 1,
      "filterable": 1
    },
    {
      "key": "csp_Ying",
      "name": "🌸 樱花动漫 ",
      "type": 3,
      "api": "csp_Ying",
      "searchable": 1,
      "quickSearch": 1,
      "filterable": 1
    },
    {
      "key": "nt动漫",
      "name": "🛎 拿铁动漫 ",
      "type": 3,
      "api": "./lib/drpy2.min.js",
      "ext": "./lib/ntdm.js"
    },
    {
      "key": "妮可",
      "name": "🔮 妮可动漫 ",
      "type": 3,
      "api": "./lib/drpy2.min.js",
      "ext": "./lib/妮可动漫.js"
    },
    {
      "key": "drpy_js_JustLive",
      "name": "🏋🏻 JustLive ",
      "type": 3,
      "api": "./lib/drpy2.min.js",
      "ext": "./lib/JustLive.js"
    },
    {
      "key": "drpy_js_虎牙直播",
      "name": "🦁 虎牙直播 ",
      "type": 3,
      "api": "./lib/drpy2.min.js",
      "ext": "./lib/虎牙直播.js"
    },
    {
      "key": "drpy_js_斗鱼直播",
      "name": "🐳 斗鱼直播 ",
      "type": 3,
      "api": "./lib/drpy2.min.js",
      "ext": "./lib/斗鱼直播.js"
    },
    {
      "key": "csp_XPath_鹅直播",
      "name": "🦆 企鹅直播·py ",
      "type": 3,
      "api": "csp_XPath",
      "searchable": 0,
      "quickSearch": 0,
      "filterable": 0,
      "ext": "./lib/qie.json"
    },
    {
      "key": "88js",
      "name": "🎱88看球 ",
      "type": 3,
      "api": "./lib/drpy2.min.js",
      "ext": "./lib/88看球.js",
      "style": {
        "type": "list"
      },
      "searchable": 0,
      "quickSearch": 0,
      "changeable": 0
    },
    {
      "key": "Jrsjs",
      "name": "⚽Jrs球迷",
      "type": 3,
      "api": "./lib/drpy2.min.js",
      "ext": "./lib/jrk.js",
      "style": {
        "type": "list"
      },
      "searchable": 0,
      "quickSearch": 0,
      "changeable": 0
    },
    {
      "key": "310js",
      "name": "⚽310看球",
      "type": 3,
      "api": "./lib/drpy2.min.js",
      "ext": "./lib/310直播.js",
      "style": {
        "type": "list"
      },
      "searchable": 0,
      "quickSearch": 0,
      "changeable": 0
    },
    {
      "key": "drpy_js_博看听书",
      "name": "📖 博看听书 ",
      "type": 3,
      "api": "./lib/drpy2.min.js",
      "ext": "./lib/博看听书.js"
    },
    {
      "key": "drpy_js_蜻蜓FM",
      "name": "🐞蜻蜓FM[js]",
      "type": 3,
      "searchable": 0,
      "api": "./lib/drpy2.min.js",
      "ext": "./lib/蜻蜓FM.js",
      "playerType": "2"
    },
    {
      "key": "csp_XYQHiker_DJ呦呦音乐网",
      "name": "🎺 DJ呦呦音乐 ",
      "type": 3,
      "jar": "./lib/duanjuw.txt;md5;5dbe95399010cd30706b01aa5624dbe0",
      "api": "csp_XYQHiker",
      "searchable": 1,
      "quickSearch": 1,
      "filterable": 1,
      "ext": "./lib/DJ呦呦音乐网.json"
    },
    {
      "key": "腾讯1",
      "name": "🎈 少儿频道1",
      "type": 3,
      "api": "./lib/drpy2.min.js",
      "ext": "./lib/腾讯.js"
    },
    {
      "key": "芒果1",
      "name": "🎈 少儿频道2",
      "type": 3,
      "api": "./lib/drpy2.min.js",
      "ext": "./lib/忙果.js"
    },
    {
      "key": "奇艺1",
      "name": "🎈 少儿频道3",
      "type": 3,
      "api": "./lib/drpy2.min.js",
      "ext": "./lib/异兽.js"
    },
    {
      "key": "优酷1",
      "name": "🎈 少儿频道4",
      "type": 3,
      "api": "./lib/drpy2.min.js",
      "ext": "./lib/优酷.js"
    },
    {
      "key": "csp_XYQHiker_兔小贝",
      "name": "🎈 兔小贝1",
      "type": 3,
      "jar": "./lib/duanjuw.txt;md5;5dbe95399010cd30706b01aa5624dbe0",
      "api": "csp_XYQHiker",
      "searchable": 1,
      "quickSearch": 1,
      "filterable": 1,
      "ext": "./lib/兔小贝.json"
    },
    {
      "key": "csp_XYQHiker_兔小贝2",
      "name": "🎈 兔小贝2",
      "type": 3,
      "jar": "./lib/duanjuw.txt;md5;5dbe95399010cd30706b01aa5624dbe0",
      "api": "csp_XYQHiker",
      "searchable": 1,
      "quickSearch": 1,
      "filterable": 1,
      "ext": "./lib/兔小贝2.json"
    },
    {
      "key": "童趣",
      "name": "🎈 童趣",
      "type": 3,
      "api": "./lib/drpy2.min.js",
      "ext": "./lib/童趣.js"
    },
    {
      "key": "幼儿启蒙",
      "name": "🎈 幼儿启蒙",
      "type": 3,
      "api": "csp_Bili",
      "searchable": 1,
      "quickSearch": 1,
      "filterable": 1,
      "ext": "./lib/幼儿启蒙.json"
    },
    {
      "key": "益智",
      "name": "🎈 益智.动画",
      "type": 3,
      "api": "csp_Bili",
      "searchable": 1,
      "quickSearch": 1,
      "filterable": 0,
      "ext": "./lib/益智动画.json"
    },
    {
      "key": "少儿教育",
      "name": "🎈 少儿教育",
      "type": 3,
      "api": "csp_Bili",
      "searchable": 1,
      "quickSearch": 1,
      "filterable": 1,
      "ext": "./lib/少儿教育.json"
    },
    {
      "key": "幼儿乐园",
      "name": "🎈 幼儿乐园",
      "type": 3,
      "api": "csp_Bili",
      "searchable": 1,
      "quickSearch": 1,
      "filterable": 1,
      "ext": "./lib/幼儿乐园.json"
    },
    {
      "key": "儿童",
      "name": "🎈 儿童乐园",
      "type": 3,
      "api": "csp_Bili",
      "searchable": 1,
      "quickSearch": 1,
      "filterable": 1,
      "ext": "./lib/儿童乐园.json"
    },
    {
      "key": "学习",
      "name": "🎈 学习园地",
      "type": 3,
      "api": "csp_Bili",
      "searchable": 1,
      "quickSearch": 1,
      "filterable": 1,
      "ext": "./lib/学习园地.json"
    },
    {
      "key": "幼小衔接",
      "name": "🎈 幼小衔接",
      "type": 3,
      "api": "csp_Bili",
      "searchable": 1,
      "quickSearch": 1,
      "filterable": 1,
      "ext": "./lib/幼小衔接.json"
    },
    {
      "key": "小灯塔",
      "name": "🌏 小灯塔",
      "type": 3,
      "api": "csp_Bili",
      "searchable": 1,
      "quickSearch": 1,
      "filterable": 1,
      "ext": "./lib/小灯塔百科.json"
    },
    {
      "key": "小灯塔科学",
      "name": "🌏 小灯塔科学",
      "type": 3,
      "api": "csp_Bili",
      "searchable": 1,
      "quickSearch": 1,
      "filterable": 1,
      "ext": "./lib/小灯塔科学.json"
    },
    {
      "key": "小灯塔地理",
      "name": "🌏 小灯塔地理",
      "type": 3,
      "api": "csp_Bili",
      "searchable": 1,
      "quickSearch": 1,
      "filterable": 1,
      "ext": "./lib/小灯塔地理.json"
    },
    {
      "key": "小灯塔国学",
      "name": "🌏 小灯塔国学",
      "type": 3,
      "api": "csp_Bili",
      "searchable": 1,
      "quickSearch": 1,
      "filterable": 1,
      "ext": "./lib/小灯塔国学.json"
    },
    {
      "key": "小灯塔人文",
      "name": "🌏 小灯塔人文",
      "type": 3,
      "api": "csp_Bili",
      "searchable": 1,
      "quickSearch": 1,
      "filterable": 1,
      "ext": "./lib/小灯塔人文.json"
    },
    {
      "key": "儿童拼音",
      "name": "🌏 儿童拼音",
      "type": 3,
      "api": "csp_Bili",
      "searchable": 1,
      "quickSearch": 1,
      "filterable": 1,
      "ext": "./lib/儿童拼音.json"
    },
    {
      "key": "儿童识字",
      "name": "🌏 儿童识字",
      "type": 3,
      "api": "csp_Bili",
      "searchable": 1,
      "quickSearch": 1,
      "filterable": 1,
      "ext": "./lib/儿童识字.json"
    },
    {
      "key": "儿童英语",
      "name": "🌏 儿童英语",
      "type": 3,
      "api": "csp_Bili",
      "searchable": 1,
      "quickSearch": 1,
      "filterable": 1,
      "ext": "./lib/儿童英语.json"
    },
    {
      "key": "儿童硬笔",
      "name": "🌏 儿童硬笔",
      "type": 3,
      "api": "csp_Bili",
      "searchable": 1,
      "quickSearch": 1,
      "filterable": 1,
      "ext": "./lib/儿童硬笔.json"
    },
    {
      "key": "儿童思维",
      "name": "🌏 儿童思维",
      "type": 3,
      "api": "csp_Bili",
      "searchable": 1,
      "quickSearch": 1,
      "filterable": 1,
      "ext": "./lib/儿童思维.json"
    },
    {
      "key": "儿童口才",
      "name": "🌏 儿童口才",
      "type": 3,
      "api": "csp_Bili",
      "searchable": 1,
      "quickSearch": 1,
      "filterable": 1,
      "ext": "./lib/儿童口才.json"
    },
    {
      "key": "儿童编程",
      "name": "🌏 儿童编程",
      "type": 3,
      "api": "csp_Bili",
      "searchable": 1,
      "quickSearch": 1,
      "filterable": 1,
      "ext": "./lib/儿童编程.json"
    },
    {
      "key": "儿童武术",
      "name": "🌏 儿童武术",
      "type": 3,
      "api": "csp_Bili",
      "searchable": 1,
      "quickSearch": 1,
      "filterable": 1,
      "ext": "./lib/儿童武术.json"
    },
    {
      "key": "兴趣培养",
      "name": "🌏 兴趣培养",
      "type": 3,
      "api": "csp_Bili",
      "searchable": 1,
      "quickSearch": 1,
      "filterable": 1,
      "ext": "./lib/兴趣培养.json"
    },
    {
      "key": "小学",
      "name": "🌏 小学教育",
      "type": 3,
      "api": "csp_Bili",
      "searchable": 1,
      "quickSearch": 1,
      "filterable": 1,
      "ext": "./lib/哔哩哔哩小学.json"
    },
    {
      "key": "初中",
      "name": "🌏 初中教育",
      "type": 3,
      "api": "csp_Bili",
      "searchable": 1,
      "quickSearch": 1,
      "filterable": 1,
      "ext": "./lib/哔哩哔哩初中.json"
    },
    {
      "key": "高中",
      "name": "🌏 高中教育",
      "type": 3,
      "api": "csp_Bili",
      "searchable": 1,
      "quickSearch": 1,
      "filterable": 1,
      "ext": "./lib/哔哩哔哩高中.json"
    },
    {
      "key": "csp_Bili",
      "name": "🌏 动物世界",
      "type": 3,
      "api": "csp_Bili",
      "searchable": 1,
      "quickSearch": 1,
      "filterable": 1,
      "ext": "./lib/吾爱动物世界.json"
    },
    {
      "key": "吾爱英语",
      "name": "📚 吾爱外语 ",
      "type": 3,
      "api": "csp_Bili",
      "searchable": 0,
      "quickSearch": 0,
      "filterable": 1,
      "ext": "./lib/吾爱外语.json"
    },
    {
      "key": "软件",
      "name": "🔐 软件教程 ",
      "type": 3,
      "api": "csp_Bili",
      "searchable": 0,
      "quickSearch": 0,
      "filterable": 1,
      "ext": "./lib/吾爱软件.json"
    },
    {
      "key": "Excel教程",
      "name": "🎨 吾爱Excel ",
      "type": 3,
      "api": "csp_Bili",
      "searchable": 0,
      "quickSearch": 0,
      "filterable": 1,
      "ext": "./lib/吾爱Excel教程.json"
    },
    {
      "key": "吾爱PS",
      "name": "⛵️ 吾爱PS ",
      "type": 3,
      "api": "csp_Bili",
      "searchable": 0,
      "quickSearch": 0,
      "filterable": 1,
      "ext": "./lib/吾爱PS.json"
    },
    {
      "key": "吾爱乐器",
      "name": "🥁 我爱乐器 ",
      "type": 3,
      "api": "csp_Bili",
      "searchable": 0,
      "quickSearch": 0,
      "filterable": 1,
      "ext": "./lib/吾爱乐器.json"
    },
    {
      "key": "美食",
      "name": "🥞 美食合集 ",
      "type": 3,
      "api": "csp_Bili",
      "searchable": 0,
      "quickSearch": 0,
      "filterable": 1,
      "ext": "./lib/吾爱美食.json"
    },
    {
      "key": "吾爱舞蹈",
      "name": "💃 吾爱舞蹈 ",
      "type": 3,
      "api": "csp_Bili",
      "searchable": 0,
      "quickSearch": 0,
      "filterable": 1,
      "ext": "./lib/吾爱舞蹈.json"
    },
    {
      "key": "吾爱户外",
      "name": "🚵🏻 吾爱户外 ",
      "type": 3,
      "api": "csp_Bili",
      "searchable": 0,
      "quickSearch": 0,
      "filterable": 1,
      "ext": "./lib/吾爱户外.json"
    },
    {
      "key": "吾爱戏曲",
      "name": "💕 吾爱戏曲 ",
      "type": 3,
      "api": "csp_Bili",
      "searchable": 0,
      "quickSearch": 0,
      "filterable": 1,
      "ext": "./lib/吾爱戏曲.json"
    },
    {
      "key": "吾爱搭配",
      "name": "⛸ 吾爱搭配 ",
      "type": 3,
      "api": "csp_Bili",
      "searchable": 0,
      "quickSearch": 0,
      "filterable": 1,
      "ext": "./lib/吾爱搭配.json"
    },
    {
      "key": "吾爱解说",
      "name": "👾 吾爱解说 ",
      "type": 3,
      "api": "csp_Bili",
      "searchable": 0,
      "quickSearch": 0,
      "filterable": 1,
      "ext": "./lib/吾爱解说.json"
    },
    {
      "key": "吾爱演唱会",
      "name": "🎸 吾爱演唱会 ",
      "type": 3,
      "api": "csp_Bili",
      "searchable": 0,
      "quickSearch": 0,
      "filterable": 1,
      "ext": "./lib/吾爱演唱会.json"
    },
    {
      "key": "吾爱经典",
      "name": "🎷 吾爱音乐 ",
      "type": 3,
      "api": "csp_Bili",
      "searchable": 0,
      "quickSearch": 0,
      "filterable": 1,
      "ext": "./lib/吾爱经典.json"
    },
    {
      "key": "吾爱球星",
      "name": "⚽️ 吾爱球星 ",
      "type": 3,
      "api": "csp_Bili",
      "searchable": 0,
      "quickSearch": 0,
      "filterable": 1,
      "ext": "./lib/吾爱球星.json"
    },
    {
      "key": "push_agent",
      "name": "♻️业余推送",
      "type": 3,
      "api": "csp_Push",
      "changeable": 0,
      "timeout": 30,
      "ext": "http://127.0.0.1:9978/file/XYQTVBox/tokenm.json"
    }
  ],
  "lives": [
    {
      "name": "通用版",
      "type": 0,
      "url": "./yydf/live/直播源.php",
      "playerType": 1,
      "ua": "okhttp/3.15",
      "epg": "http://epg.112114.xyz/?ch={name}&date={date}",
      "logo": "https://epg.112114.xyz/logo/{name}.png"
    },
    {
      "name": "央视频",
      "ua": "Mozilla/5.0 (Windows NT 10.0; Win64; x64) AppleWebKit/537.36 (KHTML, like Gecko) Chrome/120.0.0.0 Safari/537.36 Edg/120.0.0.0",
      "type": 0,
      "timeout": 40,
      "url": "./lib/xiutan.m3u"
    },
    {
      "name": "小黑",
      "type": 0,
      "url": "./lib/xbdmq.txt",
      "playerType": 1,
      "ua": "okhttp/3.15",
      "epg": "http://epg.112114.xyz/?ch={name}&date={date}",
      "logo": "https://epg.112114.xyz/logo/{name}.png"
    },
    {
      "name": "IPV6",
      "type": 0,
      "url": "./lib/ipv6.m3u",
      "playerType": 1,
      "ua": "okhttp/3.15",
      "epg": "http://epg.112114.xyz/?ch={name}&date={date}",
      "logo": "https://epg.112114.xyz/logo/{name}.png"
    }
  ],
  "parses": [
    {
      "name": "超级嗅探",
      "type": 3,
      "url": "Web"
    },
    {
      "name": "Json聚合",
      "type": 3,
      "url": "Demo"
    },
    {
      "name": "Web聚合",
      "type": 3,
      "url": "Web"
    },
    {
      "name": "永久解析",
      "type": 1,
      "url": "http://103.233.255.142:1133/?url=",
      "ext": {
        "flag": [
          "NBY"
        ],
        "header": {
          "User-Agent": "Mozilla/5.0 (Windows NT 10.0; WOW64) AppleWebKit/537.36 (KHTML, like Gecko) Chrome/86.0.4240.198 Safari/537.36"
        }
      }
    },
    {
      "name": "qiyi",
      "type": 1,
      "url": "https://api.qljson.xyz/api/?key=e2df45a25abbdfe95bb28de1e751285f&url=",
      "ext": {
        "flag": [
          "qq",
          "腾讯",
          "qiyi",
          "爱奇艺",
          "奇艺",
          "youku",
          "优酷",
          "sohu",
          "搜狐",
          "letv",
          "乐视",
          "mgtv",
          "芒果",
          "rx",
          "ltnb",
          "bilibili",
          "1905",
          "xigua"
        ]
      }
    },
    {
      "name": "tx",
      "type": 1,
      "url": "https://json..url88k.cn/api/?format=zl&key=ce252c4a116ff2613202e17e2269c2fb&url=",
      "ext": {
        "flag": [
          "qq",
          "腾讯",
          "qiyi",
          "爱奇艺",
          "奇艺",
          "youku",
          "优酷",
          "sohu",
          "搜狐",
          "letv",
          "乐视",
          "mgtv",
          "芒果",
          "rx",
          "ltnb",
          "bilibili",
          "1905",
          "xigua"
        ]
      }
    },
    {
      "name": "yk",
      "type": 1,
      "url": "https://mg.zrjx.xyz/?url=",
      "ext": {
        "flag": [
          "qq",
          "腾讯",
          "qiyi",
          "爱奇艺",
          "奇艺",
          "youku",
          "优酷",
          "sohu",
          "搜狐",
          "letv",
          "乐视",
          "mgtv",
          "芒果",
          "rx",
          "ltnb",
          "bilibili",
          "1905",
          "xigua"
        ]
      }
    },
    {
      "name": "简单",
      "type": 1,
      "url": "http://27.124.4.42:4567/jhjson/ceshi.php?url="
    },
    {
      "name": "白嫖一月",
      "type": 1,
      "url": "https://jx.kemi.lol:2087/api/?key=fQ1A2zqeiyaowu0V0U&url="
    },
    {
      "name": "备用解析",
      "type": 0,
      "url": "https://vip.lianfaka.com/vip/?url=",
      "ext": {
        "flag": [
          "qq",
          "腾讯",
          "qiyi",
          "爱奇艺",
          "奇艺",
          "youku",
          "优酷",
          "mgtv",
          "芒果",
          "letv",
          "乐视",
          "pptv",
          "PPTV",
          "sohu",
          "bilibili",
          "哔哩哔哩",
          "哔哩"
        ],
        "header": {
          "User-Agent": "okhttp/4.1.0"
        }
      }
    },
    {
      "name": "偷的解析",
      "type": 0,
      "url": "http://jx.yingshi1.icu/player/analysis.php?v=",
      "ext": {
        "flag": [
          "qq",
          "腾讯",
          "qiyi",
          "爱奇艺",
          "奇艺",
          "youku",
          "优酷",
          "mgtv",
          "芒果",
          "letv",
          "乐视",
          "pptv",
          "PPTV",
          "sohu",
          "bilibili",
          "哔哩哔哩",
          "哔哩"
        ],
        "header": {
          "User-Agent": "okhttp/4.1.0"
        }
      }
    },
    {
      "name": "超速解析1",
      "type": 0,
      "url": "https://jx.sujie520.cn/api/?key=03b1228232bec4b7f508633dc940eb59&url=",
      "ext": {
        "flag": [
          "qq",
          "腾讯",
          "qiyi",
          "爱奇艺",
          "奇艺",
          "youku",
          "优酷",
          "mgtv",
          "芒果",
          "letv",
          "乐视",
          "pptv",
          "PPTV",
          "sohu",
          "bilibili",
          "哔哩哔哩",
          "哔哩"
        ],
        "header": {
          "User-Agent": "okhttp/4.1.0"
        }
      }
    },
    {
      "name": "影探",
      "type": 1,
      "url": "http://lflong.lyyytv.cn/json.php?url=",
      "ext": {
        "flag": [
          "qq",
          "腾讯",
          "qiyi",
          "爱奇艺",
          "奇艺",
          "youku",
          "优酷",
          "mgtv",
          "芒果",
          "letv",
          "乐视",
          "pptv",
          "PPTV",
          "sohu",
          "bilibili",
          "哔哩哔哩",
          "哔哩"
        ],
        "header": {
          "User-Agent": "okhttp/4.1.0"
        }
      }
    },
    {
      "name": "蚂蚁",
      "type": 1,
      "url": "http://118.99.2.230:6688/api/?key=vAhZ67qzRdW2czQEo2&url=",
      "ext": {
        "flag": [
          "NBY"
        ],
        "header": {
          "User-Agent": "okhttp/4.1.0"
        }
      }
    },
    {
      "name": "玉米",
      "type": 1,
      "url": "http://42.157.128.109:2323/CH/zy/Yumi.php?url=",
      "ext": {
        "flag": [
          "YuMi-vip"
        ],
        "header": {
          "User-Agent": "okhttp/4.1.0"
        }
      }
    },
    {
      "name": "超聚合",
      "type": 1,
      "url": "https://hd.396pay.cn/api/diy/?key=pFELnzclw6RdhxNlH6&url=",
      "ext": {
        "flag": [
          "qq",
          "腾讯",
          "企鹅",
          "IQiYi",
          "qiyi",
          "爱奇艺",
          "奇艺",
          "youku",
          "YouKu",
          "优酷",
          "sohu",
          "SoHu",
          "搜狐",
          "letv",
          "LeShi",
          "乐视",
          "imgo",
          "mgtv",
          "MangGuo",
          "芒果",
          "SLYS4k",
          "BYGA",
          "luanzi",
          "AliS",
          "dxzy",
          "bilibili",
          "QEYSS",
          "xigua",
          "西瓜视频",
          "腾讯视频",
          "奇艺视频",
          "优酷视频",
          "芒果视频",
          "乐视视频"
        ],
        "header": {
          "User-Agent": "Dart/2.18 (dart:io)"
        }
      }
    },
    {
      "name": "超解析2",
      "type": 1,
      "url": "https://jxjson.cf/json_balabala.php?url=",
      "ext": {
        "flag": [
          "qq",
          "腾讯",
          "企鹅",
          "IQiYi",
          "qiyi",
          "爱奇艺",
          "奇艺",
          "youku",
          "YouKu",
          "优酷",
          "sohu",
          "SoHu",
          "搜狐",
          "letv",
          "LeShi",
          "乐视",
          "imgo",
          "mgtv",
          "MangGuo",
          "芒果",
          "SLYS4k",
          "BYGA",
          "luanzi",
          "AliS",
          "dxzy",
          "bilibili",
          "QEYSS",
          "xigua",
          "西瓜视频",
          "腾讯视频",
          "奇艺视频",
          "优酷视频",
          "芒果视频",
          "乐视视频"
        ]
      }
    },
    {
      "name": "高清解析",
      "type": 1,
      "url": "https://jxjson.cf/json.php?url=",
      "ext": {
        "flag": [
          "qq",
          "腾讯",
          "qiyi",
          "爱奇艺",
          "奇艺",
          "youku",
          "优酷",
          "mgtv",
          "芒果",
          "letv",
          "乐视",
          "pptv",
          "PPTV",
          "sohu",
          "bilibili",
          "哔哩哔哩",
          "哔哩"
        ],
        "header": {
          "User-Agent": "okhttp/4.1.0"
        }
      }
    },
    {
      "name": "高清嗅探",
      "type": 1,
      "url": "https://jx.777jiexi.com/player/?next=https://www.woaimoon.com/vod/98780-9-2.html&url=",
      "ext": {
        "header": {
          "User-Agent": "Mozilla/5.0"
        }
      }
    },
    {
      "name": "-官解-",
      "type": 0,
      "url": "https://jx.xyflv.cc/?url=",
      "ext": {
        "header": {
          "user-agent": "Mozilla/5.0 (Linux; Android 13; V2049A Build/TP1A.220624.014; wv) AppleWebKit/537.36 (KHTML, like Gecko) Version/4.0 Chrome/116.0.0.0 Mobile Safari/537.36",
          "referer": "https://www.xyflv.cc/"
        }
      }
    },
    {
      "name": "宝贝",
      "type": 1,
      "url": "http://json.84jia.com/home/api?type=ys&uid=335253&key=demprsyzBMQRVY0234&url=",
      "ext": {
        "flag": [
          "qq",
          "腾讯",
          "qiyi",
          "爱奇艺",
          "奇艺",
          "youku",
          "优酷",
          "tucheng",
          "sohu",
          "搜狐",
          "letv",
          "乐视",
          "mgtv",
          "芒果",
          "tnmb",
          "seven",
          "yzm",
          "aliyun",
          "RJuMao",
          "bilibili",
          "1905",
          "xinvip",
          "XAL",
          "qiqi",
          "XALS",
          "YuMi-vip"
        ]
      }
    },
    {
      "name": "超肥",
      "type": 1,
      "url": "http://xn--ihqu10cn4c.xn--z7x900a.live/jx.php?id=2&url=",
      "ext": {
        "flag": [
          "qq",
          "腾讯",
          "qiyi",
          "爱奇艺",
          "奇艺",
          "youku",
          "优酷",
          "tucheng",
          "sohu",
          "搜狐",
          "letv",
          "乐视",
          "mgtv",
          "芒果",
          "tnmb",
          "seven",
          "yzm",
          "aliyun",
          "RJuMao",
          "bilibili",
          "1905",
          "xinvip",
          "XAL",
          "qiqi",
          "XALS",
          "YuMi-vip"
        ]
      }
    },
    {
      "name": "发财🌾",
      "type": 1,
      "url": "http://xiutan.shiyifacai.com/json/qingfeng.php?url=",
      "ext": {
        "flag": [
          "seven"
        ],
        "header": {
          "User-Agent": "Lavf/58.12.100"
        }
      }
    },
    {
      "name": "发运",
      "type": 1,
      "url": "http://122.228.84.103:7777/api/?key=EauMlPIBC3spoYGaOB&url=",
      "ext": {
        "flag": [
          "FYNB",
          "NBY",
          "qiyi",
          "imgo",
          "爱奇艺",
          "奇艺",
          "qq",
          "腾讯",
          "youku",
          "优酷",
          "pptv",
          "PPTV",
          "letv",
          "乐视",
          "leshi",
          "bilibili",
          "哔哩哔哩",
          "哔哩",
          "mgtv",
          "芒果"
        ],
        "header": {
          "User-Agent": "okhttp/4.1.0"
        }
      }
    },
    {
      "name": "发福",
      "type": 1,
      "url": "http://121.62.61.51:6888/api/?key=qy9VEMeeqwl3nI4gvA&url=",
      "ext": {
        "flag": [
          "NBY"
        ],
        "header": {
          "User-Agent": "okhttp/4.1.0"
        }
      }
    },
    {
      "name": "发体",
      "type": 1,
      "url": "http://122.228.84.103:5829/jx/?url=",
      "ext": {
        "flag": [
          "seven"
        ],
        "header": {
          "User-Agent": "okhttp/4.1.0"
        }
      }
    },
    {
      "name": "西瓜1",
      "type": 0,
      "url": "https://t1.qlplayer.cyou/player/analysis.php?v="
    },
    {
      "name": "西瓜2",
      "type": 0,
      "url": "https://t1.qlplayer.cyou/player/?url="
    },
    {
      "name": "初恋1",
      "type": 0,
      "url": "https://ys.zf520.cn/addons/dp/player/index.php?key=0&url="
    },
    {
      "name": "初恋2",
      "type": 0,
      "url": "https://ys.zf520.cn/addons/dp/player/dp.php?key=0&from=&id=&api=&url="
    },
    {
      "name": "专解1",
      "type": 1,
      "url": "https://api.qljson.xyz/api/?key=d6f721dc584c894f4161e3b942a0727a&url=",
      "ext": {
        "flag": [
          "qq",
          "腾讯",
          "qiyi",
          "爱奇艺",
          "奇艺",
          "youku",
          "优酷",
          "sohu",
          "搜狐",
          "letv",
          "乐视",
          "mgtv",
          "芒果",
          "rx",
          "ltnb",
          "bilibili",
          "1905",
          "xigua"
        ]
      }
    },
    {
      "name": "专解2",
      "type": 1,
      "url": "https://api.qljson.xyz/api/?key=d6f721dc584c894f4161e3b942a0727a&url=",
      "ext": {
        "flag": [
          "qq",
          "腾讯",
          "qiyi",
          "爱奇艺",
          "奇艺",
          "youku",
          "优酷",
          "sohu",
          "搜狐",
          "letv",
          "乐视",
          "mgtv",
          "芒果",
          "rx",
          "ltnb",
          "bilibili",
          "1905",
          "xigua"
        ]
      }
    },
    {
      "name": "线路1",
      "type": 0,
      "url": "https://www.yemu.xyz/?url=",
      "ext": {
        "flag": [
          "qq",
          "腾讯",
          "qiyi",
          "iqiyi",
          "爱奇艺",
          "奇艺",
          "youku",
          "优酷",
          "mgtv",
          "芒果",
          "letv",
          "乐视",
          "pptv",
          "PPTV",
          "sohu",
          "bilibili",
          "哔哩哔哩",
          "哔哩"
        ]
      }
    },
    {
      "name": "线路2",
      "type": 0,
      "url": "https://jx.xmflv.com/?url=",
      "ext": {
        "header": {
          "user-agent": "Mozilla/5.0 (Windows NT 10.0; Win64; x64) AppleWebKit/537.36 (KHTML, like Gecko) Chrome/110.0.0.0 Safari/537.36 Edg/110.0.1587.57"
        }
      }
    },
    {
      "name": "线路3",
      "type": 0,
      "url": "https://jx.quankan.app/?url=",
      "ext": {
        "header": {
          "user-agent": "Mozilla/5.0 (Linux; Android 13; V2049A Build/TP1A.220624.014; wv) AppleWebKit/537.36 (KHTML, like Gecko) Version/4.0 Chrome/116.0.0.0 Mobile Safari/537.36"
        }
      }
    },
    {
      "name": "线路4",
      "type": 0,
      "url": "https://jx.yparse.com/index.php?url=",
      "ext": {
        "header": {
          "user-agent": "Mozilla/5.0 (Linux; Android 13; V2049A Build/TP1A.220624.014; wv) AppleWebKit/537.36 (KHTML, like Gecko) Version/4.0 Chrome/116.0.0.0 Mobile Safari/537.36"
        }
      }
    },
    {
      "name": "线路5",
      "type": 0,
      "url": "https://jx.jsonplayer.com/player/?url=",
      "ext": {
        "header": {
          "user-agent": "Mozilla/5.0 (Linux; Android 13; V2049A Build/TP1A.220624.014; wv) AppleWebKit/537.36 (KHTML, like Gecko) Version/4.0 Chrome/116.0.0.0 Mobile Safari/537.36"
        }
      }
    },
    {
      "name": "线路6",
      "type": 0,
      "url": "https://jx.xyflv.cc/?url=",
      "ext": {
        "header": {
          "user-agent": "Mozilla/5.0 (Linux; Android 13; V2049A Build/TP1A.220624.014; wv) AppleWebKit/537.36 (KHTML, like Gecko) Version/4.0 Chrome/116.0.0.0 Mobile Safari/537.36",
          "referer": "https://www.xyflv.cc/"
        }
      }
    },
    {
      "name": "线路7",
      "type": 0,
      "url": "https://jx.aidouer.net/?url=",
      "ext": {
        "header": {
          "user-agent": "Mozilla/5.0 (Linux; Android 13; V2049A Build/TP1A.220624.014; wv) AppleWebKit/537.36 (KHTML, like Gecko) Version/4.0 Chrome/116.0.0.0 Mobile Safari/537.36",
          "referer": "https://jiejie.uk/"
        }
      }
    },
    {
      "name": "线路8",
      "type": 0,
      "url": "https://jx.zhanlangbu.com/?url=",
      "ext": {
        "flag": [
          "qq",
          "腾讯",
          "qiyi",
          "爱奇艺",
          "奇艺",
          "youku",
          "优酷",
          "mgtv",
          "芒果",
          "letv",
          "乐视",
          "pptv",
          "PPTV",
          "sohu",
          "bilibili",
          "哔哩哔哩",
          "哔哩"
        ],
        "ext": {
          "header": {
            "user-agent": "Mozilla/5.0 (Linux; Android 13; V2049A Build/TP1A.220624.014; wv) AppleWebKit/537.36 (KHTML, like Gecko) Version/4.0 Chrome/116.0.0.0 Mobile Safari/537.36"
          }
        }
      }
    },
    {
      "name": "线路9",
      "type": 0,
      "url": "https://jx.777jiexi.com/player/?url="
    },
    {
      "name": "线路10",
      "type": 0,
      "url": "https://www.8090g.cn/?url="
    },
    {
      "name": "线路11",
      "type": 0,
      "url": "https://jx.yangtu.top?url="
    },
    {
      "name": "线路12",
      "type": 0,
      "url": "https://jx.m3u8.tv/jiexi/?url="
    },
    {
      "name": "线路13",
      "type": 0,
      "url": "https://www.ckplayer.vip/jiexi/?url="
    }
  ],
  "ijk": [
    {
      "group": "软解码",
      "options": [
        {
          "category": 4,
          "name": "opensles",
          "value": "0"
        },
        {
          "category": 4,
          "name": "overlay-format",
          "value": "842225234"
        },
        {
          "category": 4,
          "name": "framedrop",
          "value": "1"
        },
        {
          "category": 4,
          "name": "soundtouch",
          "value": "1"
        },
        {
          "category": 4,
          "name": "start-on-prepared",
          "value": "1"
        },
        {
          "category": 1,
          "name": "http-detect-range-support",
          "value": "0"
        },
        {
          "category": 1,
          "name": "fflags",
          "value": "fastseek"
        },
        {
          "category": 2,
          "name": "skip_loop_filter",
          "value": "48"
        },
        {
          "category": 4,
          "name": "reconnect",
          "value": "1"
        },
        {
          "category": 4,
          "name": "enable-accurate-seek",
          "value": "0"
        },
        {
          "category": 4,
          "name": "mediacodec",
          "value": "0"
        },
        {
          "category": 4,
          "name": "mediacodec-auto-rotate",
          "value": "0"
        },
        {
          "category": 4,
          "name": "mediacodec-handle-resolution-change",
          "value": "0"
        },
        {
          "category": 4,
          "name": "mediacodec-hevc",
          "value": "0"
        },
        {
          "category": 1,
          "name": "dns_cache_timeout",
          "value": "600000000"
        }
      ]
    },
    {
      "group": "硬解码",
      "options": [
        {
          "category": 4,
          "name": "opensles",
          "value": "0"
        },
        {
          "category": 4,
          "name": "overlay-format",
          "value": "842225234"
        },
        {
          "category": 4,
          "name": "framedrop",
          "value": "1"
        },
        {
          "category": 4,
          "name": "soundtouch",
          "value": "1"
        },
        {
          "category": 4,
          "name": "start-on-prepared",
          "value": "1"
        },
        {
          "category": 1,
          "name": "http-detect-range-support",
          "value": "0"
        },
        {
          "category": 1,
          "name": "fflags",
          "value": "fastseek"
        },
        {
          "category": 2,
          "name": "skip_loop_filter",
          "value": "48"
        },
        {
          "category": 4,
          "name": "reconnect",
          "value": "1"
        },
        {
          "category": 4,
          "name": "enable-accurate-seek",
          "value": "0"
        },
        {
          "category": 4,
          "name": "mediacodec",
          "value": "1"
        },
        {
          "category": 4,
          "name": "mediacodec-auto-rotate",
          "value": "1"
        },
        {
          "category": 4,
          "name": "mediacodec-handle-resolution-change",
          "value": "1"
        },
        {
          "category": 4,
          "name": "mediacodec-hevc",
          "value": "1"
        },
        {
          "category": 1,
          "name": "dns_cache_timeout",
          "value": "600000000"
        }
      ]
    }
  ],
  "doh": [
    {
      "name": "Google",
      "url": "https://dns.google/dns-query",
      "ips": [
        "8.8.4.4",
        "8.8.8.8"
      ]
    },
    {
      "name": "Cloudflare",
      "url": "https://cloudflare-dns.com/dns-query",
      "ips": [
        "1.1.1.1",
        "1.0.0.1",
        "2606:4700:4700::1111",
        "2606:4700:4700::1001"
      ]
    },
    {
      "name": "AdGuard",
      "url": "https://dns.adguard.com/dns-query",
      "ips": [
        "94.140.14.140",
        "94.140.14.141"
      ]
    },
    {
      "name": "DNSWatch",
      "url": "https://resolver2.dns.watch/dns-query",
      "ips": [
        "84.200.69.80",
        "84.200.70.40"
      ]
    },
    {
      "name": "Quad9",
      "url": "https://dns.quad9.net/dns-quer",
      "ips": [
        "9.9.9.9",
        "149.112.112.112"
      ]
    }
  ],
  "rules": [
    {
      "name": "proxy",
      "hosts": [
        "raw.githubusercontent.com",
        "googlevideo.com",
        "cdn.v82u1l.com",
        "cdn.iz8qkg.com",
        "cdn.kin6c1.com",
        "c.biggggg.com",
        "c.olddddd.com",
        "haiwaikan.com",
        "www.histar.tv",
        "access.mypikpak.com",
        "api-drive.mypikpak.com",
        "user.mypikpak.com",
        "youtube.com",
        "uhibo.com",
        "thze.cc",
        ".*boku.*",
        ".*nivod.*",
        "*.t4tv.hz.cz",
        ".*ulivetv.*"
      ]
    },
    {
      "host": "www.iesdouyin.com",
      "rule": [
        "playwm/?video_id="
      ]
    },
    {
      "host": "www.ysgc.vip",
      "rule": [
        "getm3u8?url=http"
      ]
    },
    {
      "host": "v.douyin.com",
      "rule": [
        "playwm/?video_id="
      ]
    },
    {
      "host": "*",
      "rule": [
        "default.365yg.com"
      ]
    },
    {
      "host": "dyxs20.com",
      "rule": [
        ".m3u8"
      ]
    },
    {
      "host": "www.agemys.cc",
      "rule": [
        "cdn-tos",
        "obj/tos-cn"
      ]
    },
    {
      "host": "www.sharenice.net",
      "rule": [
        "http.*?/play.{0,3}\\?[^url]{2,8}=.*"
      ]
    },
    {
      "host": "www.sharenice.net",
      "rule": [
        "qianpailive.com",
        "vid="
      ]
    },
    {
      "host": "*",
      "rule": [
        "douyin.com/aweme",
        "video_id="
      ]
    },
    {
      "host": "*",
      "rule": [
        "huoshan.com",
        "/item/video/"
      ]
    },
    {
      "host": "*",
      "rule": [
        "http((?!http).){12,}?\\.(m3u8|mp4|flv|avi|mkv|rm|wmv|mpg|m4a)\\?.*"
      ]
    },
    {
      "host": "*",
      "rule": [
        "http((?!http).){12,}\\.(m3u8|mp4|flv|avi|mkv|rm|wmv|mpg|m4a)"
      ]
    },
    {
      "name": "量子广告",
      "hosts": [
        "vip.lz",
        "hd.lz"
      ],
      "regex": [
        "#EXT-X-DISCONTINUITY\\r*\\n*#EXTINF:6.433333,[\\s\\S]*?#EXT-X-DISCONTINUITY"
      ]
    },
    {
      "name": "非凡广告",
      "hosts": [
        "vip.ffzy",
        "hd.ffzy"
      ],
      "regex": [
        "#EXT-X-DISCONTINUITY\\r*\\n*#EXTINF:6.666667,[\\s\\S]*?#EXT-X-DISCONTINUITY"
      ]
    },
    {
      "name": "非凡",
      "hosts": [
        "vip.ffzy",
        "hd.ffzy"
      ],
      "regex": [
        "20.52",
        "#EXT-X-DISCONTINUITY\\r*\\n*#EXTINF:7\\.400000,[\\s\\S]*?#EXT-X-DISCONTINUITY",
        "#EXTINF.*?\\s+.*?1170(20|32).*?\\.ts\\s+",
        "#EXTINF.*?\\s+.*?116977.*?\\.ts\\s+"
      ]
    },
    {
      "name": "暴风廣告",
      "hosts": [
        "bfzy"
      ],
      "regex": [
        "#EXT-X-DISCONTINUITY\\r*\\n*#EXTINF:3,[\\s\\S]*?#EXT-X-DISCONTINUITY",
        "#EXTINF.*?\\s+.*?1o.*?\\.ts\\s+"
      ]
    },
    {
      "name": "索尼",
      "hosts": [
        "suonizy"
      ],
      "regex": [
        "#EXT-X-DISCONTINUITY\\r*\\n*#EXTINF:7.680000,[\\s\\S]*?#EXT-X-DISCONTINUITY",
        "#EXTINF.*?\\s+.*?1o.*?\\.ts\\s+"
      ]
    },
    {
      "name": "磁力广告",
      "hosts": [
        "magnet"
      ],
      "regex": [
        "更多",
        "社 區",
        "x u u",
        "最 新",
        "直 播",
        "更 新",
        "社 区",
        "有 趣",
        "英皇体育",
        "全中文AV在线",
        "新片首发",
        "UUE29"
      ]
    },
    {
      "name": "火山嗅探",
      "hosts": [
        "huoshan.com"
      ],
      "regex": [
        "item_id="
      ]
    },
    {
      "name": "抖音嗅探",
      "hosts": [
        "douyin.com"
      ],
      "regex": [
        "is_play_url="
      ]
    }
  ],
  "flags": [
    "youku",
    "qq",
    "QQ",
    "iqiyi",
    "qiqi",
    "qiyi",
    "letv",
    "sohu",
    "tudou",
    "pptv",
    "PPTV",
    "mgtv",
    "ltnb",
    "rx",
    "SLYS4k",
    "BYGA",
    "luanzi",
    "dxzy",
    "QEYSS",
    "aliyun",
    "AliS",
    "122",
    "chuangying",
    "CL4K",
    "xfyun",
    "wuduzy",
    "wasu",
    "bilibili",
    "renrenmi",
    "ppayun",
    "haiwaikan",
    "cool",
    "dbm3u8",
    "xmm",
    "xigua",
    "m1905",
    "funshion",
    "imgo",
    "ruyi1080",
    "ruyib1080"
  ],
  "ads": [
    "mimg.0c1q0l.cn",
    "www.googletagmanager.com",
    "www.google-analytics.com",
    "mc.usihnbcq.cn",
    "mg.g1mm3d.cn",
    "mscs.svaeuzh.cn",
    "cnzz.hhttm.top",
    "tp.vinuxhome.com",
    "cnzz.mmstat.com",
    "www.baihuillq.com",
    "s23.cnzz.com",
    "z3.cnzz.com",
    "c.cnzz.com",
    "stj.v1vo.top",
    "z12.cnzz.com",
    "img.mosflower.cn",
    "tips.gamevvip.com",
    "ehwe.yhdtns.com",
    "xdn.cqqc3.com",
    "www.jixunkyy.cn",
    "sp.chemacid.cn",
    "hm.baidu.com",
    "s9.cnzz.com",
    "z6.cnzz.com",
    "um.cavuc.com",
    "mav.mavuz.com",
    "wofwk.aoidf3.com",
    "z5.cnzz.com",
    "xc.hubeijieshikj.cn",
    "tj.tianwenhu.com",
    "xg.gars57.cn",
    "k.jinxiuzhilv.com",
    "cdn.bootcss.com",
    "ppl.xunzhuo123.com",
    "xomk.jiangjunmh.top",
    "img.xunzhuo123.com",
    "z1.cnzz.com",
    "s13.cnzz.com",
    "xg.huataisangao.cn",
    "z7.cnzz.com",
    "xg.huataisangao.cn",
    "z2.cnzz.com",
    "s96.cnzz.com",
    "q11.cnzz.com",
    "thy.dacedsfa.cn",
    "xg.whsbpw.cn",
    "s19.cnzz.com",
    "z8.cnzz.com",
    "s4.cnzz.com",
    "f5w.as12df.top",
    "ae01.alicdn.com",
    "www.92424.cn",
    "k.wudejia.com",
    "vivovip.mmszxc.top",
    "qiu.xixiqiu.com",
    "cdnjs.hnfenxun.com",
    "cms.qdwght.com"
  ]
}